[gd_resource type="LabelSettings" format=3 uid="uid://bj2wbf0p6o5ko"]

[resource]
font_size = 50
outline_size = 1
outline_color = Color(0, 0, 0, 1)
shadow_color = Color(0.372549, 0.372549, 0.372549, 1)
